{
	"add_config_files": [
		"configs/config-USDT.json",
		"configs/config-PairBlacklist.json",
		"configs/config-VolumePair.json",
	],
	"dry_run": true,
	"dry_run_wallet": 1400,
    "exchange": {
        "name": "binance",
        "key": "",
        "secret": "",
    },
    "telegram": {
        "enabled": true,
        "token": "6698627948:AAHlJ9jBioXyTFH726LwAIs5yx1moZr8vKw",
        "chat_id": "-769875244",
    },
    "bot_name": "3mbotTEST",
    "initial_state": "running",
    "internals": {
        "process_throttle_secs": 5,
		"max_trade_duration_minute": 3440,
    },
}
