{
	"add_config_files": [
		"configs/config-USDT.json",
		"configs/config-StaticPair.json",
	],
	"dry_run": true,
	"dry_run_wallet": 1400,
    "minimal_roi": {
        "0":     0.0790,
        "100":   0.0550,
        "200":   0.0440,
        "300":   0.0390,
        "800":   0.0260,
        "1100":  0.0160,
        "1800":  0.0095,
        "4000":  0.0055,
        "10000":  -1,
    },
    "stoploss": -0.145,
    "exchange": {
        "name": "binance",
        "key": "",
        "secret": "",
    },
    "telegram": {
        "enabled": false,
        "token": "",
        "chat_id": "",
    },
    "bot_name": "3mbotTEST",
    "initial_state": "running",
    "internals": {
        "process_throttle_secs": 5,
		"max_trade_duration_minute": 3440,
    },
}
