{






    "exchange": {
        "pair_whitelist": [	
			"(AAVE|ANKR|ARPA|ATA|ALGO|AVAX|AUDIO|ATA)/USDT",
			"(BAKE)/USDT",
			"(CELO|COS|COTI|CHR|CHZ|CKB)/USDT",
			"(DAR)/USDT",
			"(DATA)/USDT",
			"(DENT)/USDT",
			"(DODO)/USDT",
			"(DEXE|DREP|DUSK)/USDT",
			"FET/USDT",
			"(FIL)/USDT",
			"(FTM)/USDT",
			"(FLUX)/USDT",
			"GALA/USDT",
			"(GMT)/USDT",
			"(ICX)/USDT",
			"(IMX)/USDT",
			"(INJ)/USDT",
			"IRIS/USDT",
			"JASMY/USDT",
			"(LINA|LEVER)/USDT",
			"(MOVR)/USDT",
			"(OCEAN|ONE|ONT|OXT)/USDT",
			"(PERL|POWR|POND)/USDT",
			"(QTUM)/USDT",
			"(SFP)/USDT",
			"(STMX|STEEM)/USDT",
			"(SUSHI)/USDT",
			"(T|TKO)/USDT",
			"(TLM)/USDT",
			"TOMO/USDT",
			"TRU/USDT",
			"(REEF)/USDT",
			"(RIF)/USDT",
			"RSR/USDT",
			"RVN/USDT",
			"XTZ/USDT",
			"XVG/USDT",
			"(ZRX)/USDT",
			"(VOXEL|VIDT|VET|VGX)/USDT",
			"(WAVES)/USDT",
			"(WRX)/USDT",
			"WOO/USDT",
		],
    },
}